{
    "works": [
        {
            "title" : "Saphire",
            "id" : "001",
            "description" : "Proyecto realizado en equipo donde pretendíamos levantar una aplicación de visionado en Streamin' tipo Netflix/HBO. Se trabajo el front con Angular 7 maquetado con Flexbox. El back está contruido con Node y MySQL para todos los paneles de administración. Peticiones a API TMDB para el front y a nuestra propia BBDD desde el Back.",
            "date": "29 de mayo de 2019",
            "tecnologys" : ["Angular", " JavaScript", " HTML5", " CSS3", " Node JS", " y MySQL."],
            "img" :"https://gumoma.design/img/portfolio/IMGDESKTOP/SAPHIRE-01.jpg",
            "urlRep" : "https://gitlab.com/tr01.wfsdft.mar19/sapphire",
            "desc01" : "Desktop",
            "desc02" : "Mobile",
            "desc03" : "Colores",
            "desc04" : "Cliente",
            "IMG01" : "https://gumoma.design/img/portfolio/IMGDESKTOP/SAPHIRE-01.jpg",
            "IMG02" : "https://gumoma.design/img/portfolio/IMGMOBILE/SAPHIRE.jpg",
            "IMG03" : "https://gumoma.design/img/portfolio/COLORES/SAPHIRE-02.jpg",
            "IMG04" : "https://gumoma.design/img/portfolio/IMGLOGOS/SAPHIRE.jpg"
        },
        {
            "title": "ToDoApp",
            "id" : "002",
            "description": "Creación de una App To Do, desarrollando una API Rest del lado del servidor con Node JS, Express y Mongoose para conectar con Mongo. Una App muy completa con todo el proceso CRUD con JavaScript del lado del servidor.",
            "date": "20 de mayo de 2019",
            "tecnologys": ["Node JS", " Javascript", " Express", " Mongoose", " y MongoDB."],
            "img" :"https://gumoma.design/img/portfolio/IMGDESKTOP/TODOLIST-01.jpg",
            "urlRep" : "https://gitlab.com/node-tr09/todolist",
            "desc01" : "Desktop",
            "desc02" : "Mobile",
            "desc03" : "Colores",
            "desc04" : "Cliente",
            "IMG01" : "https://gumoma.design/img/portfolio/IMGDESKTOP/TODOLIST-01.jpg",
            "IMG02" : "https://gumoma.design/img/portfolio/IMGMOBILE/TODOLIST.jpg",
            "IMG03" : "https://gumoma.design/img/portfolio/COLORES/TODOLIST-02.jpg",
            "IMG04" : "https://gumoma.design/img/portfolio/IMGLOGOS/TODOLIST.jpg"
        },
        {
            "title": "EatNow",
            "id" : "003",
            "description": "Maquetación del home para la web EATNOW. Esta web está enfocada en ofrecer al usuario todo tipo de facilidades a la hora de encontrar un restaurante y reservar así como de ofrecer a los propietarios de los restaurantes promocionarse y obtener mayor visibilidad.",
            "date": "22 de abril de 2019",
            "tecnologys": ["HTML5", " CSS3", " y JQuery."],
            "img" :"https://gumoma.design/img/portfolio/IMGDESKTOP/EATNOW-01.jpg",
            "urlRep" : "https://gitlab.com/html-css-tr09/web-eatnow",
            "desc01" : "Desktop",
            "desc02" : "Mobile",
            "desc03" : "Colores",
            "desc04" : "Cliente",
            "IMG01" : "https://gumoma.design/img/portfolio/IMGDESKTOP/EATNOW-01.jpg",
            "IMG02" : "https://gumoma.design/img/portfolio/IMGMOBILE/EATNOW.jpg",
            "IMG03" : "https://gumoma.design/img/portfolio/COLORES/EATNOW-02.jpg",
            "IMG04" : "https://gumoma.design/img/portfolio/IMGLOGOS/EATNOW.jpg"
        },
        {
            "title": "Battle JS",
            "id" : "004",
            "description": "Juego desarrollado en Vanilla JS con ES6 en el que se utilizan las clases y sus métodos para poder, en este caso, atacar a los contrincantes. Proceso muy completo desde toda la lógica hasta el front.",
            "date": "18 de abril de 2019",
            "tecnologys": ["Vanilla JS", " HTML5", " y CSS3."],
            "img" :"https://gumoma.design/img/portfolio/IMGDESKTOP/BATTLEJS-01.jpg",
            "urlRep" : "https://gitlab.com/javascript-tr09/javascript-battle",
            "desc01" : "Desktop",
            "desc02" : "Mobile",
            "desc03" : "Colores",
            "desc04" : "Cliente",
            "IMG01" : "https://gumoma.design/img/portfolio/IMGDESKTOP/BATTLEJS-01.jpg",
            "IMG02" : "https://gumoma.design/img/portfolio/IMGMOBILE/BATTLEJS.jpg",
            "IMG03" : "https://gumoma.design/img/portfolio/COLORES/BATTLEJS-02.jpg",
            "IMG04" : "https://gumoma.design/img/portfolio/IMGLOGOS/BATTLEJS.jpg"
        },
        {
            "title": "Music Store",
            "id" : "005",
            "description": "Creación de una Music Store con el fin de implementar un 'Carrito de la compra'. Desarrollado todo con Vanilla JS, atacando al dom y utilizando algunas de sus funciones como el setTimeOut(). Todo maquetado con HTML y CSS.",
            "date": "30 de marzo de 2019",
            "tecnologys": ["Vanilla JS", " HTML5", " y CSS3."],
            "img" :"https://gumoma.design/img/portfolio/IMGDESKTOP/MUSICSTORE-01.jpg",
            "urlRep" : "https://gitlab.com/javascript-tr09/javascript-carrito-compra",
            "desc01" : "Desktop",
            "desc02" : "Mobile",
            "desc03" : "Colores",
            "desc04" : "Cliente",
            "IMG01" : "https://gumoma.design/img/portfolio/IMGDESKTOP/MUSICSTORE-01.jpg",
            "IMG02" : "https://gumoma.design/img/portfolio/IMGMOBILE/MUSICSTORE.jpg",
            "IMG03" : "https://gumoma.design/img/portfolio/COLORES/MUSICSTORE-02.jpg",
            "IMG04" : "https://gumoma.design/img/portfolio/IMGLOGOS/MUSICSTORE.jpg"
        },
        {
            "title": "Kid Cala",
            "id" : "006",
            "description": "Página web realizada para el productor y dj de Tropical & Global Bass, Kid Cala. Basada en las viñetas e inspirada en obras minimalistas donde el menos es más. Es una página web desarrollada con HTML, CSS y JavaScript/Jquery donde se le saca bastante partido a Flexbox y Grid CSS.",
            "date": "10 de mayo de 2018",
            "tecnologys": ["HTML5", " CSS3", " y JavaScript/Jquery."],
            "img" :"https://gumoma.design/img/portfolio/IMGDESKTOP/KIDCALA-01.jpg",
            "urlRep" : "http://kidcala.com",
            "desc01" : "Desktop",
            "desc02" : "Mobile",
            "desc03" : "Colores",
            "desc04" : "Cliente",
            "IMG01" : "https://gumoma.design/img/portfolio/IMGDESKTOP/KIDCALA-01.jpg",
            "IMG02" : "https://gumoma.design/img/portfolio/IMGMOBILE/KIDCALA.jpg",
            "IMG03" : "https://gumoma.design/img/portfolio/COLORES/KIDCALA-02.jpg",
            "IMG04" : "https://gumoma.design/img/portfolio/IMGLOGOS/KIDCALA.jpg"
        }
    ]
}